[
  {
    "id": "0",
    "name": "Rosalind Ochoa",
    "about": "In in in tempor consectetur aliqua dolor laboris eiusmod cillum in eu. Anim id labore commodo velit sit ipsum. Enim qui in eu sint veniam do. Do in deserunt esse commodo ad veniam incididunt. Esse occaecat ipsum labore elit dolor tempor. Non consectetur excepteur aliquip tempor consequat. Dolor aliquip excepteur incididunt ad incididunt.\r\n",
    "text": "Ipsum ex aliquip ea consequat sint occaecat qui non do irure. Esse deserunt voluptate nostrud quis consequat mollit sint magna laborum amet ea do mollit nostrud. Laboris elit tempor do sit. Sint incididunt non magna nulla nulla deserunt amet deserunt amet est consequat aliqua. Dolore deserunt consectetur velit consectetur ex dolore eiusmod cupidatat elit tempor veniam ut est sunt.\r\nMagna enim culpa elit sit. Cillum sit duis irure aliqua excepteur. Esse quis enim consequat in exercitation adipisicing labore fugiat nulla Lorem adipisicing cillum eu. Aute commodo magna enim tempor id nostrud consequat consequat incididunt proident mollit aliqua aute velit. Qui culpa voluptate esse eu qui ea.\r\nEx consequat dolor culpa ea occaecat nulla voluptate qui ut reprehenderit. Ea tempor enim et nisi aliquip dolor nisi. Ut qui commodo anim minim ea ut. Non velit sit adipisicing exercitation. Pariatur Lorem dolore in sint et magna in anim pariatur.\r\nEt dolor sint deserunt laborum consectetur sint occaecat quis voluptate fugiat. Minim culpa nostrud nostrud laboris aliqua exercitation voluptate incididunt quis est anim cupidatat. Voluptate voluptate nostrud nulla ipsum nulla commodo.\r\nSit id ullamco mollit elit exercitation sit nisi magna est. Nostrud esse mollit culpa commodo aliquip anim adipisicing. Aute minim occaecat qui Lorem reprehenderit velit ullamco sint irure. Irure magna reprehenderit nostrud incididunt culpa culpa tempor adipisicing incididunt est. Officia laborum ullamco amet id anim voluptate consectetur velit id. Elit mollit ipsum laborum cillum cupidatat enim. Nulla esse ipsum anim consectetur sunt deserunt magna velit cillum dolor.\r\nSunt irure qui in ex nostrud officia. Consectetur minim id esse officia officia pariatur quis officia commodo duis cillum reprehenderit magna. Officia quis voluptate laborum enim incididunt ea sint fugiat ipsum dolor labore culpa consequat. Nulla elit ipsum est non consectetur mollit laboris.\r\n",
    "date": "07-12-2016 02:01:45",
    "picture": "http://placehold.it/160x160"
  },
  {
    "id": "1",
    "name": "Trisha Franks",
    "about": "Ad amet incididunt nisi veniam laboris tempor ullamco quis. Occaecat Lorem ullamco anim labore laborum ullamco. Consequat sit tempor proident elit qui nostrud duis officia officia. Consequat sit non ex commodo magna ipsum ut. Commodo aliqua aliqua deserunt nulla minim amet. Laborum qui reprehenderit excepteur non labore consequat esse eiusmod est do.\r\n",
    "text": "Voluptate Lorem est qui culpa eu nostrud non ex veniam eu ut quis aute. Voluptate ut duis dolore aliquip. Esse cupidatat anim ad aliqua ullamco magna dolor veniam minim excepteur sunt mollit mollit.\r\nVoluptate qui dolor voluptate ipsum ea velit est reprehenderit Lorem proident magna ipsum culpa. Laborum laborum sit pariatur eu Lorem minim. Ex veniam aliquip duis voluptate in.\r\nReprehenderit et pariatur dolore sit exercitation. Veniam sunt pariatur pariatur amet incididunt exercitation eiusmod nisi irure ea. Tempor nostrud ullamco ut eiusmod.\r\nExercitation Lorem in amet pariatur laborum elit voluptate dolore reprehenderit adipisicing pariatur ipsum ea mollit. Ad sint dolor qui est velit ea minim aliquip amet proident deserunt et. Reprehenderit eiusmod eu est dolor fugiat et duis voluptate esse fugiat voluptate elit adipisicing. Laboris ut nostrud labore anim cupidatat tempor fugiat excepteur sit consequat nostrud do et enim. Et do mollit enim et voluptate exercitation ad amet cupidatat. Duis labore ut non nostrud sint nulla magna aliqua ipsum aliqua ex ipsum elit do. Irure officia cupidatat ipsum consectetur eu eu Lorem dolor in.\r\nMagna id velit ullamco minim esse ad qui. Dolor enim nostrud excepteur consequat. Irure adipisicing et voluptate veniam qui nisi tempor. Eu aute magna ad do esse ad ad magna non occaecat ullamco sit pariatur.\r\nDolor est qui cupidatat velit deserunt elit. Amet nisi minim in deserunt ea irure magna commodo aute aliqua velit nostrud qui elit. Nisi cillum irure laborum dolor amet. Sint veniam deserunt culpa exercitation aute sit adipisicing veniam quis. Commodo adipisicing elit in commodo. Sit consectetur do est esse duis.\r\n",
    "date": "14-01-2014 04:16:19",
    "picture": "http://placehold.it/160x160"
  },
  {
    "id": "2",
    "name": "Patricia Malone",
    "about": "Qui minim magna Lorem occaecat exercitation proident pariatur eu dolore Lorem cillum. Anim aute occaecat ut ullamco cupidatat ullamco anim in duis. Et excepteur magna enim anim enim. Non do minim cillum pariatur dolore qui sint ex minim. Nisi non irure magna minim aute voluptate occaecat laborum.\r\n",
    "text": "Aliquip ullamco reprehenderit id eiusmod deserunt cillum ullamco. Reprehenderit dolore Lorem et sunt. Sunt do officia magna quis id velit cupidatat.\r\nLaboris amet enim exercitation ut nisi esse esse adipisicing laboris non. Veniam reprehenderit adipisicing sint ullamco ea ad minim et est veniam veniam exercitation et. Do ullamco nostrud est consequat qui magna exercitation velit id proident excepteur in enim. Proident deserunt ea laboris duis id ullamco ea aliqua minim id. Ea pariatur officia labore id excepteur occaecat in.\r\nQuis dolor irure elit sit excepteur dolore. Commodo laborum magna excepteur sunt laboris reprehenderit sit dolor proident fugiat. Dolor aliquip tempor eu mollit dolore ex veniam Lorem amet nostrud.\r\nAnim adipisicing enim dolor ea duis commodo adipisicing eu sunt adipisicing cillum. Excepteur deserunt id amet incididunt nostrud ipsum. Et laboris eu adipisicing laborum ullamco nulla nisi eiusmod ullamco consectetur. Occaecat est magna do consectetur fugiat consectetur veniam ullamco ipsum. Laborum veniam ipsum ad elit eu cupidatat quis consectetur dolore sint est reprehenderit dolor laboris. Commodo veniam pariatur in commodo duis dolor ex do velit Lorem. Adipisicing magna enim exercitation nisi veniam aliqua consequat reprehenderit anim veniam nulla ea.\r\nConsequat sit pariatur ipsum ullamco exercitation consequat sint officia culpa in et. Non Lorem tempor sit ea velit deserunt velit. Voluptate irure in consequat qui labore labore. Nulla dolor laborum dolore nulla cillum.\r\nLabore excepteur amet deserunt quis adipisicing dolore. Eiusmod anim exercitation sunt Lorem labore sit consectetur voluptate. Est laborum Lorem Lorem eu sit laborum veniam quis cupidatat.\r\n",
    "date": "21-11-2015 03:13:9",
    "picture": "http://placehold.it/160x160"
  },
  {
    "id": "3",
    "name": "Lyons Gillespie",
    "about": "Reprehenderit ad excepteur voluptate amet quis id deserunt fugiat laboris irure nostrud fugiat aliqua. Nulla pariatur velit id eiusmod incididunt aute. Sint eiusmod ad esse consequat aute in aliquip quis amet proident mollit et. Elit cupidatat occaecat eiusmod consequat tempor adipisicing occaecat dolor Lorem sunt.\r\n",
    "text": "Adipisicing laborum commodo pariatur id et. Enim exercitation anim laboris laboris est quis pariatur nisi tempor elit tempor. Labore ex id cillum officia et laboris pariatur officia id amet culpa et. Nostrud irure labore consequat velit eu exercitation sint qui excepteur sunt quis. Anim tempor aliquip aliqua magna laboris ut reprehenderit. Adipisicing quis dolor dolore amet anim excepteur occaecat quis mollit pariatur in excepteur labore laboris.\r\nOccaecat id ea do pariatur Lorem culpa Lorem ullamco commodo nostrud qui duis fugiat. Elit cillum labore cillum velit aute esse exercitation esse. Id culpa est Lorem ipsum laboris dolor. Sunt proident amet nulla nisi ipsum ullamco cillum. Quis amet minim dolore id consequat ut mollit ipsum officia et dolore aliquip aliquip consequat. Sint est officia duis excepteur sit.\r\nLorem cillum veniam excepteur fugiat do. Eu incididunt eu ex ad voluptate sint cillum sunt. Excepteur id sit cupidatat in minim ipsum. Velit nostrud dolor quis occaecat consequat magna. Eiusmod Lorem sint occaecat dolor consectetur est consectetur aute aliquip ex. Incididunt quis proident consequat minim cillum adipisicing culpa dolor duis fugiat nulla nostrud adipisicing ut. Veniam consequat nulla et magna mollit ea laboris reprehenderit laboris.\r\nNulla minim aute adipisicing incididunt nisi. Dolore Lorem ad irure reprehenderit nulla duis veniam in fugiat velit enim. Magna aliqua sint ea eu voluptate anim occaecat occaecat. Aliquip id irure exercitation nisi eu in tempor ullamco adipisicing exercitation sit est aliquip aliquip. Nostrud eiusmod eu incididunt culpa magna. Consequat incididunt ut minim dolor occaecat dolore non Lorem labore ullamco in reprehenderit.\r\nCommodo enim id dolor cupidatat. Non et velit nulla aliquip ut enim. Duis consectetur mollit ut do.\r\nDeserunt in incididunt nulla tempor mollit esse occaecat consequat Lorem irure aute incididunt anim magna. Voluptate nulla non culpa officia officia velit adipisicing consequat qui est sunt nulla amet. Aliqua voluptate excepteur cupidatat pariatur qui enim elit ad laborum cillum. Irure veniam do Lorem voluptate aliquip sunt. Esse officia sunt deserunt sint commodo pariatur ad ut sint sunt labore.\r\n",
    "date": "14-07-2014 11:36:7",
    "picture": "http://placehold.it/160x160"
  },
  {
    "id": "4",
    "name": "Sophie Aguilar",
    "about": "Aliqua aliqua nostrud sunt nisi magna qui eiusmod ipsum aute nisi dolore irure. Pariatur commodo eu culpa cillum. Et voluptate anim labore excepteur nulla occaecat laborum officia. Tempor nisi nulla magna elit eu velit labore culpa. Do commodo labore sunt aute anim.\r\n",
    "text": "Qui nulla est et magna aliquip eiusmod dolor proident id consequat. Ex incididunt occaecat aliquip ipsum magna irure consectetur qui enim irure. Id tempor amet deserunt consequat cillum excepteur nisi voluptate dolore.\r\nLaboris exercitation ut cillum sint duis ullamco nulla consectetur minim proident minim. Aliquip qui velit eu nulla irure ad ea. Commodo anim irure ad dolore cillum nostrud. Velit esse quis amet magna occaecat enim ut sint aute. Voluptate ullamco consectetur est deserunt velit anim sint irure. Consequat eiusmod deserunt proident magna pariatur tempor veniam reprehenderit cillum.\r\nExcepteur sunt labore cupidatat aliquip ad exercitation officia consequat esse non fugiat sit ex veniam. Ad aliqua aliqua sint ullamco esse minim dolore officia. Voluptate veniam ullamco excepteur commodo sint et nisi velit incididunt. Nulla elit irure non aliquip aliquip commodo deserunt laborum in irure fugiat. Laboris esse duis qui nostrud duis mollit.\r\nNulla nulla sit officia non. Nostrud sunt ut est commodo ullamco ex ut. Exercitation sit non fugiat consectetur exercitation labore velit sit. Irure sint consectetur consequat enim incididunt et minim dolor commodo Lorem quis.\r\nExcepteur esse in consequat anim veniam aute aliquip. Eu ut do excepteur incididunt incididunt reprehenderit est irure. Sint Lorem in aliquip pariatur quis do anim culpa exercitation cillum ad Lorem non. Elit consequat cupidatat laborum culpa laboris id in ex nulla consectetur consectetur culpa quis. Occaecat aute sint proident reprehenderit eu incididunt labore ex elit excepteur cillum magna laboris. Velit ipsum aliquip amet laboris reprehenderit cillum quis id.\r\nEsse occaecat proident nisi aute id laboris aliqua dolore occaecat consequat duis laboris. Elit qui reprehenderit pariatur enim dolore non nulla. Sunt incididunt ex qui ullamco ipsum anim ea mollit tempor. Eu anim eiusmod qui in enim.\r\n",
    "date": "10-02-2014 10:57:13",
    "picture": "http://placehold.it/160x160"
  }
]